[
{
    "pk": 1, 
    "model": "contenttypes.contenttype", 
    "fields": {
        "model": "permission", 
        "name": "permission", 
        "app_label": "auth"
    }
},
{
    "pk": 2, 
    "model": "contenttypes.contenttype", 
    "fields": {
        "model": "group", 
        "name": "group", 
        "app_label": "auth"
    }
},
{
    "pk": 3, 
    "model": "contenttypes.contenttype", 
    "fields": {
        "model": "user", 
        "name": "user", 
        "app_label": "auth"
    }
},
{
    "pk": 4, 
    "model": "contenttypes.contenttype", 
    "fields": {
        "model": "contenttype", 
        "name": "content type", 
        "app_label": "contenttypes"
    }
},
{
    "pk": 5, 
    "model": "contenttypes.contenttype", 
    "fields": {
        "model": "session", 
        "name": "session", 
        "app_label": "sessions"
    }
},
{
    "pk": 6, 
    "model": "contenttypes.contenttype", 
    "fields": {
        "model": "site", 
        "name": "site", 
        "app_label": "sites"
    }
},
{
    "pk": 7, 
    "model": "contenttypes.contenttype", 
    "fields": {
        "model": "logentry", 
        "name": "log entry", 
        "app_label": "admin"
    }
},
{
    "pk": 8, 
    "model": "contenttypes.contenttype", 
    "fields": {
        "model": "migrationhistory", 
        "name": "migration history", 
        "app_label": "south"
    }
},
{
    "pk": 9, 
    "model": "contenttypes.contenttype", 
    "fields": {
        "model": "coevaluacion", 
        "name": "coevaluacion", 
        "app_label": "coevaluaciones"
    }
},
{
    "pk": 10, 
    "model": "contenttypes.contenttype", 
    "fields": {
        "model": "pregunta", 
        "name": "pregunta", 
        "app_label": "coevaluaciones"
    }
},
{
    "pk": 11, 
    "model": "contenttypes.contenttype", 
    "fields": {
        "model": "respuesta", 
        "name": "respuesta", 
        "app_label": "coevaluaciones"
    }
},
{
    "pk": 12, 
    "model": "contenttypes.contenttype", 
    "fields": {
        "model": "profesor", 
        "name": "profesor", 
        "app_label": "cursos"
    }
},
{
    "pk": 13, 
    "model": "contenttypes.contenttype", 
    "fields": {
        "model": "curso", 
        "name": "curso", 
        "app_label": "cursos"
    }
},
{
    "pk": 14, 
    "model": "contenttypes.contenttype", 
    "fields": {
        "model": "estudiante", 
        "name": "estudiante", 
        "app_label": "cursos"
    }
},
{
    "pk": 15, 
    "model": "contenttypes.contenttype", 
    "fields": {
        "model": "grupo", 
        "name": "grupo", 
        "app_label": "cursos"
    }
},
{
    "pk": 1, 
    "model": "auth.permission", 
    "fields": {
        "codename": "add_permission", 
        "name": "Can add permission", 
        "content_type": [
            "auth", 
            "permission"
        ]
    }
},
{
    "pk": 2, 
    "model": "auth.permission", 
    "fields": {
        "codename": "change_permission", 
        "name": "Can change permission", 
        "content_type": [
            "auth", 
            "permission"
        ]
    }
},
{
    "pk": 3, 
    "model": "auth.permission", 
    "fields": {
        "codename": "delete_permission", 
        "name": "Can delete permission", 
        "content_type": [
            "auth", 
            "permission"
        ]
    }
},
{
    "pk": 4, 
    "model": "auth.permission", 
    "fields": {
        "codename": "add_group", 
        "name": "Can add group", 
        "content_type": [
            "auth", 
            "group"
        ]
    }
},
{
    "pk": 5, 
    "model": "auth.permission", 
    "fields": {
        "codename": "change_group", 
        "name": "Can change group", 
        "content_type": [
            "auth", 
            "group"
        ]
    }
},
{
    "pk": 6, 
    "model": "auth.permission", 
    "fields": {
        "codename": "delete_group", 
        "name": "Can delete group", 
        "content_type": [
            "auth", 
            "group"
        ]
    }
},
{
    "pk": 7, 
    "model": "auth.permission", 
    "fields": {
        "codename": "add_user", 
        "name": "Can add user", 
        "content_type": [
            "auth", 
            "user"
        ]
    }
},
{
    "pk": 8, 
    "model": "auth.permission", 
    "fields": {
        "codename": "change_user", 
        "name": "Can change user", 
        "content_type": [
            "auth", 
            "user"
        ]
    }
},
{
    "pk": 9, 
    "model": "auth.permission", 
    "fields": {
        "codename": "delete_user", 
        "name": "Can delete user", 
        "content_type": [
            "auth", 
            "user"
        ]
    }
},
{
    "pk": 10, 
    "model": "auth.permission", 
    "fields": {
        "codename": "add_contenttype", 
        "name": "Can add content type", 
        "content_type": [
            "contenttypes", 
            "contenttype"
        ]
    }
},
{
    "pk": 11, 
    "model": "auth.permission", 
    "fields": {
        "codename": "change_contenttype", 
        "name": "Can change content type", 
        "content_type": [
            "contenttypes", 
            "contenttype"
        ]
    }
},
{
    "pk": 12, 
    "model": "auth.permission", 
    "fields": {
        "codename": "delete_contenttype", 
        "name": "Can delete content type", 
        "content_type": [
            "contenttypes", 
            "contenttype"
        ]
    }
},
{
    "pk": 13, 
    "model": "auth.permission", 
    "fields": {
        "codename": "add_session", 
        "name": "Can add session", 
        "content_type": [
            "sessions", 
            "session"
        ]
    }
},
{
    "pk": 14, 
    "model": "auth.permission", 
    "fields": {
        "codename": "change_session", 
        "name": "Can change session", 
        "content_type": [
            "sessions", 
            "session"
        ]
    }
},
{
    "pk": 15, 
    "model": "auth.permission", 
    "fields": {
        "codename": "delete_session", 
        "name": "Can delete session", 
        "content_type": [
            "sessions", 
            "session"
        ]
    }
},
{
    "pk": 16, 
    "model": "auth.permission", 
    "fields": {
        "codename": "add_site", 
        "name": "Can add site", 
        "content_type": [
            "sites", 
            "site"
        ]
    }
},
{
    "pk": 17, 
    "model": "auth.permission", 
    "fields": {
        "codename": "change_site", 
        "name": "Can change site", 
        "content_type": [
            "sites", 
            "site"
        ]
    }
},
{
    "pk": 18, 
    "model": "auth.permission", 
    "fields": {
        "codename": "delete_site", 
        "name": "Can delete site", 
        "content_type": [
            "sites", 
            "site"
        ]
    }
},
{
    "pk": 19, 
    "model": "auth.permission", 
    "fields": {
        "codename": "add_logentry", 
        "name": "Can add log entry", 
        "content_type": [
            "admin", 
            "logentry"
        ]
    }
},
{
    "pk": 20, 
    "model": "auth.permission", 
    "fields": {
        "codename": "change_logentry", 
        "name": "Can change log entry", 
        "content_type": [
            "admin", 
            "logentry"
        ]
    }
},
{
    "pk": 21, 
    "model": "auth.permission", 
    "fields": {
        "codename": "delete_logentry", 
        "name": "Can delete log entry", 
        "content_type": [
            "admin", 
            "logentry"
        ]
    }
},
{
    "pk": 22, 
    "model": "auth.permission", 
    "fields": {
        "codename": "add_migrationhistory", 
        "name": "Can add migration history", 
        "content_type": [
            "south", 
            "migrationhistory"
        ]
    }
},
{
    "pk": 23, 
    "model": "auth.permission", 
    "fields": {
        "codename": "change_migrationhistory", 
        "name": "Can change migration history", 
        "content_type": [
            "south", 
            "migrationhistory"
        ]
    }
},
{
    "pk": 24, 
    "model": "auth.permission", 
    "fields": {
        "codename": "delete_migrationhistory", 
        "name": "Can delete migration history", 
        "content_type": [
            "south", 
            "migrationhistory"
        ]
    }
},
{
    "pk": 25, 
    "model": "auth.permission", 
    "fields": {
        "codename": "add_coevaluacion", 
        "name": "Can add coevaluacion", 
        "content_type": [
            "coevaluaciones", 
            "coevaluacion"
        ]
    }
},
{
    "pk": 26, 
    "model": "auth.permission", 
    "fields": {
        "codename": "change_coevaluacion", 
        "name": "Can change coevaluacion", 
        "content_type": [
            "coevaluaciones", 
            "coevaluacion"
        ]
    }
},
{
    "pk": 27, 
    "model": "auth.permission", 
    "fields": {
        "codename": "delete_coevaluacion", 
        "name": "Can delete coevaluacion", 
        "content_type": [
            "coevaluaciones", 
            "coevaluacion"
        ]
    }
},
{
    "pk": 28, 
    "model": "auth.permission", 
    "fields": {
        "codename": "alumno", 
        "name": "alumno", 
        "content_type": [
            "coevaluaciones", 
            "coevaluacion"
        ]
    }
},
{
    "pk": 29, 
    "model": "auth.permission", 
    "fields": {
        "codename": "profesor", 
        "name": "profesor", 
        "content_type": [
            "coevaluaciones", 
            "coevaluacion"
        ]
    }
},
{
    "pk": 30, 
    "model": "auth.permission", 
    "fields": {
        "codename": "add_pregunta", 
        "name": "Can add pregunta", 
        "content_type": [
            "coevaluaciones", 
            "pregunta"
        ]
    }
},
{
    "pk": 31, 
    "model": "auth.permission", 
    "fields": {
        "codename": "change_pregunta", 
        "name": "Can change pregunta", 
        "content_type": [
            "coevaluaciones", 
            "pregunta"
        ]
    }
},
{
    "pk": 32, 
    "model": "auth.permission", 
    "fields": {
        "codename": "delete_pregunta", 
        "name": "Can delete pregunta", 
        "content_type": [
            "coevaluaciones", 
            "pregunta"
        ]
    }
},
{
    "pk": 33, 
    "model": "auth.permission", 
    "fields": {
        "codename": "alumno", 
        "name": "alumno", 
        "content_type": [
            "coevaluaciones", 
            "pregunta"
        ]
    }
},
{
    "pk": 34, 
    "model": "auth.permission", 
    "fields": {
        "codename": "profesor", 
        "name": "profesor", 
        "content_type": [
            "coevaluaciones", 
            "pregunta"
        ]
    }
},
{
    "pk": 35, 
    "model": "auth.permission", 
    "fields": {
        "codename": "add_respuesta", 
        "name": "Can add respuesta", 
        "content_type": [
            "coevaluaciones", 
            "respuesta"
        ]
    }
},
{
    "pk": 36, 
    "model": "auth.permission", 
    "fields": {
        "codename": "change_respuesta", 
        "name": "Can change respuesta", 
        "content_type": [
            "coevaluaciones", 
            "respuesta"
        ]
    }
},
{
    "pk": 37, 
    "model": "auth.permission", 
    "fields": {
        "codename": "delete_respuesta", 
        "name": "Can delete respuesta", 
        "content_type": [
            "coevaluaciones", 
            "respuesta"
        ]
    }
},
{
    "pk": 38, 
    "model": "auth.permission", 
    "fields": {
        "codename": "alumno", 
        "name": "alumno", 
        "content_type": [
            "coevaluaciones", 
            "respuesta"
        ]
    }
},
{
    "pk": 39, 
    "model": "auth.permission", 
    "fields": {
        "codename": "profesor", 
        "name": "profesor", 
        "content_type": [
            "coevaluaciones", 
            "respuesta"
        ]
    }
},
{
    "pk": 40, 
    "model": "auth.permission", 
    "fields": {
        "codename": "add_profesor", 
        "name": "Can add profesor", 
        "content_type": [
            "cursos", 
            "profesor"
        ]
    }
},
{
    "pk": 41, 
    "model": "auth.permission", 
    "fields": {
        "codename": "change_profesor", 
        "name": "Can change profesor", 
        "content_type": [
            "cursos", 
            "profesor"
        ]
    }
},
{
    "pk": 42, 
    "model": "auth.permission", 
    "fields": {
        "codename": "delete_profesor", 
        "name": "Can delete profesor", 
        "content_type": [
            "cursos", 
            "profesor"
        ]
    }
},
{
    "pk": 43, 
    "model": "auth.permission", 
    "fields": {
        "codename": "profesor", 
        "name": "profesor", 
        "content_type": [
            "cursos", 
            "profesor"
        ]
    }
},
{
    "pk": 44, 
    "model": "auth.permission", 
    "fields": {
        "codename": "add_curso", 
        "name": "Can add curso", 
        "content_type": [
            "cursos", 
            "curso"
        ]
    }
},
{
    "pk": 45, 
    "model": "auth.permission", 
    "fields": {
        "codename": "change_curso", 
        "name": "Can change curso", 
        "content_type": [
            "cursos", 
            "curso"
        ]
    }
},
{
    "pk": 46, 
    "model": "auth.permission", 
    "fields": {
        "codename": "delete_curso", 
        "name": "Can delete curso", 
        "content_type": [
            "cursos", 
            "curso"
        ]
    }
},
{
    "pk": 47, 
    "model": "auth.permission", 
    "fields": {
        "codename": "alumno", 
        "name": "alumno", 
        "content_type": [
            "cursos", 
            "curso"
        ]
    }
},
{
    "pk": 48, 
    "model": "auth.permission", 
    "fields": {
        "codename": "profesor", 
        "name": "profesor", 
        "content_type": [
            "cursos", 
            "curso"
        ]
    }
},
{
    "pk": 49, 
    "model": "auth.permission", 
    "fields": {
        "codename": "add_estudiante", 
        "name": "Can add estudiante", 
        "content_type": [
            "cursos", 
            "estudiante"
        ]
    }
},
{
    "pk": 50, 
    "model": "auth.permission", 
    "fields": {
        "codename": "change_estudiante", 
        "name": "Can change estudiante", 
        "content_type": [
            "cursos", 
            "estudiante"
        ]
    }
},
{
    "pk": 51, 
    "model": "auth.permission", 
    "fields": {
        "codename": "delete_estudiante", 
        "name": "Can delete estudiante", 
        "content_type": [
            "cursos", 
            "estudiante"
        ]
    }
},
{
    "pk": 52, 
    "model": "auth.permission", 
    "fields": {
        "codename": "alumno", 
        "name": "alumno", 
        "content_type": [
            "cursos", 
            "estudiante"
        ]
    }
},
{
    "pk": 53, 
    "model": "auth.permission", 
    "fields": {
        "codename": "add_grupo", 
        "name": "Can add grupo", 
        "content_type": [
            "cursos", 
            "grupo"
        ]
    }
},
{
    "pk": 54, 
    "model": "auth.permission", 
    "fields": {
        "codename": "change_grupo", 
        "name": "Can change grupo", 
        "content_type": [
            "cursos", 
            "grupo"
        ]
    }
},
{
    "pk": 55, 
    "model": "auth.permission", 
    "fields": {
        "codename": "delete_grupo", 
        "name": "Can delete grupo", 
        "content_type": [
            "cursos", 
            "grupo"
        ]
    }
},
{
    "pk": 56, 
    "model": "auth.permission", 
    "fields": {
        "codename": "alumno", 
        "name": "alumno", 
        "content_type": [
            "cursos", 
            "grupo"
        ]
    }
},
{
    "pk": 57, 
    "model": "auth.permission", 
    "fields": {
        "codename": "profesor", 
        "name": "profesor", 
        "content_type": [
            "cursos", 
            "grupo"
        ]
    }
},
{
    "pk": 1, 
    "model": "auth.group", 
    "fields": {
        "name": "Profesor", 
        "permissions": [
            [
                "add_coevaluacion", 
                "coevaluaciones", 
                "coevaluacion"
            ], 
            [
                "change_coevaluacion", 
                "coevaluaciones", 
                "coevaluacion"
            ], 
            [
                "delete_coevaluacion", 
                "coevaluaciones", 
                "coevaluacion"
            ], 
            [
                "profesor", 
                "coevaluaciones", 
                "coevaluacion"
            ], 
            [
                "add_pregunta", 
                "coevaluaciones", 
                "pregunta"
            ], 
            [
                "change_pregunta", 
                "coevaluaciones", 
                "pregunta"
            ], 
            [
                "delete_pregunta", 
                "coevaluaciones", 
                "pregunta"
            ], 
            [
                "profesor", 
                "coevaluaciones", 
                "pregunta"
            ], 
            [
                "add_respuesta", 
                "coevaluaciones", 
                "respuesta"
            ], 
            [
                "change_respuesta", 
                "coevaluaciones", 
                "respuesta"
            ], 
            [
                "delete_respuesta", 
                "coevaluaciones", 
                "respuesta"
            ], 
            [
                "profesor", 
                "coevaluaciones", 
                "respuesta"
            ], 
            [
                "add_curso", 
                "cursos", 
                "curso"
            ], 
            [
                "change_curso", 
                "cursos", 
                "curso"
            ], 
            [
                "delete_curso", 
                "cursos", 
                "curso"
            ], 
            [
                "profesor", 
                "cursos", 
                "curso"
            ], 
            [
                "add_estudiante", 
                "cursos", 
                "estudiante"
            ], 
            [
                "change_estudiante", 
                "cursos", 
                "estudiante"
            ], 
            [
                "delete_estudiante", 
                "cursos", 
                "estudiante"
            ], 
            [
                "add_grupo", 
                "cursos", 
                "grupo"
            ], 
            [
                "change_grupo", 
                "cursos", 
                "grupo"
            ], 
            [
                "delete_grupo", 
                "cursos", 
                "grupo"
            ], 
            [
                "profesor", 
                "cursos", 
                "grupo"
            ], 
            [
                "add_profesor", 
                "cursos", 
                "profesor"
            ], 
            [
                "change_profesor", 
                "cursos", 
                "profesor"
            ], 
            [
                "delete_profesor", 
                "cursos", 
                "profesor"
            ], 
            [
                "profesor", 
                "cursos", 
                "profesor"
            ]
        ]
    }
},
{
    "pk": 2, 
    "model": "auth.group", 
    "fields": {
        "name": "Alumno", 
        "permissions": [
            [
                "alumno", 
                "coevaluaciones", 
                "coevaluacion"
            ], 
            [
                "alumno", 
                "coevaluaciones", 
                "pregunta"
            ], 
            [
                "alumno", 
                "coevaluaciones", 
                "respuesta"
            ], 
            [
                "alumno", 
                "cursos", 
                "curso"
            ], 
            [
                "alumno", 
                "cursos", 
                "estudiante"
            ], 
            [
                "alumno", 
                "cursos", 
                "grupo"
            ]
        ]
    }
}
]
